Data Science Applied to Ag - Final Project - Design
…
6.1 Descriptive summary for each treatment × material × bio rep

summary_stats <- data_clean %>%
  group_by(treatment, material, biological_replication) %>%
  summarise(
    mean_log_cfu = mean(population_log_cfu_coupon),
    sd_log_cfu = sd(population_log_cfu_coupon),
    .groups = "drop"
  )
summary_stats

# A tibble: 63 × 5
   treatment    material          biological_replication mean_log_cfu sd_log_cfu
   <chr>        <chr>             <fct>                         <dbl>      <dbl>
 1 Det+Chlorine Foam              1                              5.20     0.204 
 2 Det+Chlorine Foam              2                              3.48     0.583 
 3 Det+Chlorine Foam              3                              3.97     0.643 
 4 Det+Chlorine Interlocking bel… 1                              6.14     0.0983
 5 Det+Chlorine Interlocking bel… 2                              6.03     0.458 
 6 Det+Chlorine Interlocking bel… 3                              6.40     0.421 
 7 Det+Chlorine PVC               1                              3.90     0.817 
 8 Det+Chlorine PVC               2                              4.85     0.716 
 9 Det+Chlorine PVC               3                              4.35     0.596 
10 Det+SaniDate Foam              1                              5.10     0.575 
# ℹ 53 more rows
…
Normality

Outlier detection (< -3 or > 3)

7.1 Extracting residuals

First, extract our model residuals, and also create studentized residuals.

library(broom.mixed)
mix_mod_resid <- augment(mix_mod) %>%
  mutate(.studresid=rstudent(mix_mod))

mix_mod_resid

# A tibble: 63 × 16
   mean_log_cfu material  treatment biological_replication .fitted  .resid  .hat
          <dbl> <fct>     <fct>     <fct>                    <dbl>   <dbl> <dbl>
 1         5.20 Foam      Det+Chlo… 1                         4.30  0.896  0.357
 2         3.48 Foam      Det+Chlo… 2                         4.02 -0.541  0.357
 3         3.97 Foam      Det+Chlo… 3                         4.33 -0.355  0.357
 4         6.14 Interloc… Det+Chlo… 1                         6.28 -0.134  0.357
 5         6.03 Interloc… Det+Chlo… 2                         5.99  0.0389 0.357
 6         6.40 Interloc… Det+Chlo… 3                         6.30  0.0947 0.357
 7         3.90 PVC       Det+Chlo… 1                         4.45 -0.554  0.357
 8         4.85 PVC       Det+Chlo… 2                         4.17  0.682  0.357
 9         4.35 PVC       Det+Chlo… 3                         4.48 -0.129  0.357
10         5.10 Foam      Det+Sani… 1                         4.57  0.530  0.357
# ℹ 53 more rows
# ℹ 9 more variables: .cooksd <dbl>, .fixed <dbl>, .mu <dbl>, .offset <dbl>,
#   .sqrtXwt <dbl>, .sqrtrwt <dbl>, .weights <dbl>, .wtres <dbl>,
#   .studresid <dbl>
…
